Portfolio Project 2 -
…
library(tidyverse)
library(haven)
long_data <- read_sav("data/LongData copy.sav")
wide_data <- read_sav("data/V.3 CLEANED DATA copy.sav")
wide_data

## # A tibble: 100 × 29
##    group participant delib        seating partyid prej_preD prej_postD prej_preR
##    <dbl>       <dbl> <dbl+lbl>    <dbl+l> <dbl+l>     <dbl>      <dbl>     <dbl>
##  1  1206           1 1 [delibera… 1 [div… 1 [Dem…      23.6      19.9       67.9
##  2  1206           2 1 [delibera… 1 [div… 1 [Dem…      37.8      46.1       70.6
##  3  1206           3 1 [delibera… 1 [div… 1 [Dem…      41.1      41.1       47.4
##  4  1206           4 1 [delibera… 1 [div… 2 [Rep…      52.8      35.6       43.9
##  5  1206           5 1 [delibera… 1 [div… 1 [Dem…      29.6      23.9       28.9
##  6  1206           6 1 [delibera… 1 [div… 1 [Dem…      16.7      20.6       71.9
##  7  1207           7 1 [delibera… 2 [alt… 2 [Rep…      48.9      54.4       37.2
##  8  1207           8 1 [delibera… 2 [alt… 2 [Rep…      64.9      66.9       51.8
##  9  1207           9 1 [delibera… 2 [alt… 1 [Dem…      44.6       6.67      62.3
## 10  1207          10 1 [delibera… 2 [alt… 2 [Rep…      76.1      78.9       25.6
## # ℹ 90 more rows
## # ℹ 21 more variables: prej_postR <dbl>, discr_preD <dbl>, discr_postD <dbl>,
## #   discr_preR <dbl>, discr_postR <dbl>, stereo_preD <dbl>, stereo_postD <dbl>,
## #   stereo_preR <dbl>, stereo_postR <dbl>, prej_pre_overall <dbl>,
## #   prej_post_overall <dbl>, discr_pre_overall <dbl>, discr_post_overall <dbl>,
## #   stereo_pre_overall <dbl>, stereo_post_overall <dbl>, bias_preD <dbl>,
## #   bias_postD <dbl>, bias_preR <dbl>, bias_postR <dbl>, …

long_data

## # A tibble: 400 × 7
##    participant delib            partyid       target  time     bias polarization
##          <dbl> <dbl+lbl>        <dbl+lbl>     <dbl+l> <dbl+l> <dbl>        <dbl>
##  1           1 1 [deliberation] 1 [Democrats] 1 [Dem… 1 [pre…  12.0        52.3 
##  2           1 1 [deliberation] 1 [Democrats] 1 [Dem… 2 [ po…  17.0        42.9 
##  3           1 1 [deliberation] 1 [Democrats] 2 [Rep… 1 [pre…  64.3        52.3 
##  4           1 1 [deliberation] 1 [Democrats] 2 [Rep… 2 [ po…  60.0        42.9 
##  5           2 1 [deliberation] 1 [Democrats] 1 [Dem… 1 [pre…  30.0        33.1 
##  6           2 1 [deliberation] 1 [Democrats] 1 [Dem… 2 [ po…  25.1        30.0 
##  7           2 1 [deliberation] 1 [Democrats] 2 [Rep… 1 [pre…  63.1        33.1 
##  8           2 1 [deliberation] 1 [Democrats] 2 [Rep… 2 [ po…  55.0        30.0 
##  9           3 1 [deliberation] 1 [Democrats] 1 [Dem… 1 [pre…  40.8         7.67
## 10           3 1 [deliberation] 1 [Democrats] 1 [Dem… 2 [ po…  26.2        15.0 
## # ℹ 390 more rows
