Portfolio 3 - Exploring Effective Data Visualization
…
Product: A comparison between a bar graph and a set of box plots.

Data: Data contains information about affective political
polarization grouped by political party identification and experimental
group (described more below).

Loading Packages and Importing Data

library(tidyverse)
library(haven)
long_data <- read_sav("data/LongData copy.sav")
long_data

## # A tibble: 400 × 7
##    participant delib            partyid       target  time     bias polarization
##          <dbl> <dbl+lbl>        <dbl+lbl>     <dbl+l> <dbl+l> <dbl>        <dbl>
##  1           1 1 [deliberation] 1 [Democrats] 1 [Dem… 1 [pre…  12.0        52.3 
##  2           1 1 [deliberation] 1 [Democrats] 2 [Rep… 1 [pre…  64.3        52.3 
##  3           1 1 [deliberation] 1 [Democrats] 1 [Dem… 2 [ po…  17.0        42.9 
##  4           1 1 [deliberation] 1 [Democrats] 2 [Rep… 2 [ po…  60.0        42.9 
##  5           2 1 [deliberation] 1 [Democrats] 1 [Dem… 1 [pre…  30.0        33.1 
##  6           2 1 [deliberation] 1 [Democrats] 2 [Rep… 1 [pre…  63.1        33.1 
##  7           2 1 [deliberation] 1 [Democrats] 1 [Dem… 2 [ po…  25.1        30.0 
##  8           2 1 [deliberation] 1 [Democrats] 2 [Rep… 2 [ po…  55.0        30.0 
##  9           3 1 [deliberation] 1 [Democrats] 1 [Dem… 1 [pre…  40.8         7.67
## 10           3 1 [deliberation] 1 [Democrats] 2 [Rep… 1 [pre…  48.5         7.67
## # ℹ 390 more rows
…
