Data Cleaning
…
Removing WB Outlier

#DEVIATING FROM PREREGISTRATION
# Create z-score version of WellBeing
WB_outlier <- qualtrics_data %>%
  mutate(WellBeing_z = abs(scale(WellBeing)[,1])) %>% 
  dplyr::select(WellBeing_z, id) %>% 
  arrange(desc(WellBeing_z))
WB_outlier

## # A tibble: 149 × 2
##    WellBeing_z id   
##          <dbl> <chr>
##  1        4.99 26256
##  2        2.35 25923
##  3        2.16 25696
##  4        2.13 25794
##  5        2.03 25770
##  6        1.91 25704
##  7        1.80 25698
##  8        1.79 26128
##  9        1.75 25757
## 10        1.64 25706
## # ℹ 139 more rows
…
