Portfolio 6
…
Given that the main thing I’m interested in is the regression
coefficient (and related statistics) of the predictor variable, it made
sense to try to use R code that could run regressions for all
combinations of predictors and outcome variables and organize the
relevant output into a table. See below for the results.

outcome_vars <- c("WellBeing", "Anxiety_POMP", "Depression_POMP", "LifeSatisf_POMP", 
                 "PosAffect_POMP", "NegAffect_POMP")
expl_vars <- c("Relig", "Relig_inter", "Relig_intra")

results6 <- loop_regressions(outcome_vars, expl_vars, data_for_analysis)

results6

## # A tibble: 36 × 13
##    model outcome predictor b     B     SE    t     t_p   R     adjR     F_ df   
##    <chr> <chr>   <chr>     <chr> <chr> <chr> <chr> <chr> <chr> <chr> <dbl> <chr>
##  1 no c… WellBe… Relig     -0.09 -0.01 0.72  -0.12 0.903 0.00  -0.01  0.01 (1, …
##  2 w/ c… WellBe… Relig     -0.39 -0.04 0.73  -0.53 0.600 0.23  0.16   3.4  (12,…
##  3 no c… WellBe… Relig_in… -0.09 -0.01 0.75  -0.13 0.900 0.00  -0.01  0.02 (1, …
##  4 w/ c… WellBe… Relig_in… -0.24 -0.03 0.74  -0.33 0.742 0.23  0.16   3.39 (12,…
##  5 no c… WellBe… Relig_in… -0.08 -0.01 0.67  -0.11 0.910 0.00  -0.01  0.01 (1, …
##  6 w/ c… WellBe… Relig_in… -0.42 -0.05 0.68  -0.62 0.538 0.23  0.16   3.42 (12,…
##  7 no c… Anxiet… Relig     0.92  0.04  1.73  0.53  0.594 0.00  -0.00  0.29 (1, …
##  8 w/ c… Anxiet… Relig     1.72  0.08  1.81  0.95  0.343 0.18  0.11   2.47 (12,…
##  9 no c… Anxiet… Relig_in… 0.81  0.04  1.78  0.46  0.649 0.00  -0.01  0.21 (1, …
## 10 w/ c… Anxiet… Relig_in… 1.33  0.06  1.83  0.72  0.471 0.18  0.10   2.44 (12,…
## # ℹ 26 more rows
## # ℹ 1 more variable: F_p <chr>

Interpretation

Below I will arrange the rows of the table by p-value (t_p is the
p-value for the t statistic for the predictor’s regression coefficent)
to search for models in which religiosity (or one of the subscales)
significantly predicted well-being (or one of the constituent well-being
variables).

results6 %>% 
  arrange(t_p)

## # A tibble: 36 × 13
##    model outcome predictor b     B     SE    t     t_p   R     adjR     F_ df   
##    <chr> <chr>   <chr>     <chr> <chr> <chr> <chr> <chr> <chr> <chr> <dbl> <chr>
##  1 w/ c… Anxiet… Relig_in… 1.75  0.09  1.69  1.04  0.301 0.18  0.11   2.49 (12,…
##  2 w/ c… Anxiet… Relig     1.72  0.08  1.81  0.95  0.343 0.18  0.11   2.47 (12,…
##  3 w/ c… NegAff… Relig_in… 1.07  0.08  1.26  0.84  0.401 0.13  0.05   1.69 (12,…
##  4 no c… NegAff… Relig_in… 0.86  0.06  1.16  0.74  0.462 0.00  -0.00  0.54 (1, …
##  5 w/ c… Anxiet… Relig_in… 1.33  0.06  1.83  0.72  0.471 0.18  0.10   2.44 (12,…
##  6 no c… PosAff… Relig_in… 0.87  0.05  1.31  0.66  0.509 0.00  -0.00  0.44 (1, …
##  7 w/ c… WellBe… Relig_in… -0.42 -0.05 0.68  -0.62 0.538 0.23  0.16   3.42 (12,…
##  8 no c… Anxiet… Relig_in… 0.89  0.05  1.60  0.55  0.581 0.00  -0.00  0.31 (1, …
##  9 no c… Anxiet… Relig     0.92  0.04  1.73  0.53  0.594 0.00  -0.00  0.29 (1, …
## 10 w/ c… WellBe… Relig     -0.39 -0.04 0.73  -0.53 0.600 0.23  0.16   3.4  (12,…
## # ℹ 26 more rows
## # ℹ 1 more variable: F_p <chr>
…
