Portfolio 10 - Creating a Cross-Cultural Interviewee Demographics Presentation
…
Approach 4

Here is the approach I ended up using. I created the dataset in Excel
and imported it into R.

library(readxl)
interviewee_demographics <- read_excel("data/interviewee_demographics.xlsx")
interviewee_demographics

## # A tibble: 27 × 9
##      age gender  race race2 major      occupation birth_country length_res_years
##    <dbl>  <dbl> <dbl> <chr> <chr>      <chr>      <chr>                    <dbl>
##  1    33      2     3 <NA>  <NA>       professor  Guyana                    2   
##  2    31      2     8 mixed <NA>       professor  South Africa              1.67
##  3    89      2     6 <NA>  <NA>       <NA>       Italy                    NA   
##  4    25      1     4 6     <NA>       HES resea… Brazil                    5   
##  5    20      2     6 <NA>  <NA>       student    Netherlands               2   
##  6    28      2     3 <NA>  communica… student    Nigeria                   1   
##  7    57      1     6 <NA>  <NA>       retired -… England                  28   
##  8    51     NA     4 <NA>  economics  banking    Colombia                 27   
##  9    22      2     4 6     economics  student    Brazil                    4   
## 10    20      2     6 <NA>  engineeri… student    South Africa              5   
## # ℹ 17 more rows
## # ℹ 1 more variable: year_moved <dbl>
…
